module gitlab.com/ggvaberi/kdbttp

go 1.19

require (
	github.com/google/uuid v1.3.0
	github.com/mattn/go-sqlite3 v1.14.17
	go.mongodb.org/mongo-driver v1.12.0
	gopkg.in/gcfg.v1 v1.2.3
)

require (
	github.com/golang/snappy v0.0.1 // indirect
	github.com/klauspost/compress v1.13.6 // indirect
	github.com/montanaflynn/stats v0.0.0-20171201202039-1bf9dbcd8cbe // indirect
	github.com/xdg-go/pbkdf2 v1.0.0 // indirect
	github.com/xdg-go/scram v1.1.2 // indirect
	github.com/xdg-go/stringprep v1.0.4 // indirect
	github.com/youmark/pkcs8 v0.0.0-20181117223130-1be2e3e5546d // indirect
	golang.org/x/crypto v0.0.0-20220622213112-05595931fe9d // indirect
	golang.org/x/sync v0.0.0-20220722155255-886fb9371eb4 // indirect
	golang.org/x/text v0.7.0 // indirect
	gopkg.in/warnings.v0 v0.1.2 // indirect
)
